
{
    "type": "object",
    "properties": {
        "json-output-2": {
            "type": "object",
            "properties": {
            },
            "description": "",
            "example": {
            }
        }
    }
}