OwnerId, CreatedDate
REP_5,2018-02-01T12:00:01.000-08:00
REP_5,2018-02-02T12:00:01.000-08:00
REP_5,2018-02-03T12:00:01.000-08:00
REP_1,2018-02-01T12:00:01.000-08:00
REP_1,2018-02-02T12:00:01.000-08:00
REP_1,2018-02-03T12:00:01.000-08:00
REP_8,2018-02-01T12:00:01.000-08:00
REP_8,2018-02-02T12:00:01.000-08:00
REP_8,2018-02-03T12:00:01.000-08:00
REP_7,2018-02-01T12:00:01.000-08:00
REP_7,2018-02-02T12:00:01.000-08:00
REP_7,2018-02-03T12:00:01.000-08:00
REP_10,2018-02-01T12:00:01.000-08:00
REP_10,2018-02-02T12:00:01.000-08:00
REP_10,2018-02-03T12:00:01.000-08:00
REP_3,2018-02-01T12:00:01.000-08:00
REP_3,2018-02-02T12:00:01.000-08:00
REP_3,2018-02-03T12:00:01.000-08:00
REP_9,2018-02-01T12:00:01.000-08:00
REP_9,2018-02-02T12:00:01.000-08:00
REP_9,2018-02-03T12:00:01.000-08:00
REP_2,2018-02-01T12:00:01.000-08:00
REP_2,2018-02-02T12:00:01.000-08:00
REP_2,2018-02-03T12:00:01.000-08:00
REP_6,2018-02-01T12:00:01.000-08:00
REP_6,2018-02-02T12:00:01.000-08:00
REP_6,2018-02-03T12:00:01.000-08:00
REP_4,2018-02-01T12:00:01.000-08:00
REP_4,2018-02-02T12:00:01.000-08:00
REP_4,2018-02-03T12:00:01.000-08:00
