
{
    "type": "object",
    "properties": {
        "string-input-16": {
            "type": "string",
            "default": "ENT_035_Test",
            "description": "",
            "example": "ENT_035_Test"
        },
        "json-input-1": {
            "type": "object",
            "properties": {
                "filePath": {
                    "type": "string",
                    "default": "knime://knime.mountpoint/SCD_Model_Factory/tmp/ENT_035_Load_2020-07-21T15-04-03.618.table"
                }
            },
            "description": "",
            "example": {
                "filePath": "knime://knime.mountpoint/SCD_Model_Factory/tmp/ENT_035_Load_2020-07-21T15-04-03.618.table"
            }
        },
        "string-input-0:3": {
            "type": "string",
            "default": "knime://knime.mountpoint/SCD_Model_Factory/tmp",
            "description": "Enter Description",
            "example": "knime://knime.mountpoint/SCD_Model_Factory/tmp"
        },
        "string-input-24": {
            "type": "string",
            "default": "ENT_035_Train",
            "description": "",
            "example": "ENT_035_Train"
        },
        "string-input-34:3": {
            "type": "string",
            "default": "knime://knime.mountpoint/SCD_Model_Factory/tmp",
            "description": "Enter Description",
            "example": "knime://knime.mountpoint/SCD_Model_Factory/tmp"
        }
    }
}