
{
    "type": "object",
    "properties": {
        "string-input-16": {
            "type": "string",
            "default": "ENT_036_Test",
            "description": "",
            "example": "ENT_036_Test"
        },
        "json-input-1": {
            "type": "object",
            "properties": {
            },
            "description": "",
            "example": {
            }
        },
        "string-input-0:3": {
            "type": "string",
            "default": "knime://knime.mountpoint/SCD_Model_Factory/tmp",
            "description": "Enter Description",
            "example": "knime://knime.mountpoint/SCD_Model_Factory/tmp"
        },
        "string-input-24": {
            "type": "string",
            "default": "ENT_036_Train",
            "description": "",
            "example": "ENT_036_Train"
        },
        "string-input-34:3": {
            "type": "string",
            "default": "knime://knime.mountpoint/SCD_Model_Factory/tmp",
            "description": "Enter Description",
            "example": "knime://knime.mountpoint/SCD_Model_Factory/tmp"
        }
    }
}